MMM-With-Carryover-And-Saturation • tidymmm
…
Response Curves

Generate reponse from model decomposition

response <- response_curves(model_decomps)
response
#> # A tibble: 12,000 × 8
#>    model       var        var_shape var_nu mid_point_x mid_point_y     x      y
#>    <chr>       <chr>          <dbl>  <dbl>       <dbl>       <dbl> <dbl>  <dbl>
#>  1 cs_init_fit mi_banners         1      1     304145.     596218.    0      0 
#>  2 cs_init_fit mi_banners         1      1     304145.     596218.  304.  1192.
#>  3 cs_init_fit mi_banners         1      1     304145.     596218.  609.  2381.
#>  4 cs_init_fit mi_banners         1      1     304145.     596218.  913.  3568.
#>  5 cs_init_fit mi_banners         1      1     304145.     596218. 1217.  4753.
#>  6 cs_init_fit mi_banners         1      1     304145.     596218. 1521.  5935.
#>  7 cs_init_fit mi_banners         1      1     304145.     596218. 1826.  7115.
#>  8 cs_init_fit mi_banners         1      1     304145.     596218. 2130.  8293.
#>  9 cs_init_fit mi_banners         1      1     304145.     596218. 2434.  9468.
#> 10 cs_init_fit mi_banners         1      1     304145.     596218. 2739. 10641.
#> # ℹ 11,990 more rows
…
